Trabalhos sobre Tendência e Sazonalidade
…
---
class: middle
#Estimar Sazonalidade 

```
## # A tibble: 144 x 5
##    data       consumo   mes  tend residuo
##    <date>       <dbl> <dbl> <dbl>   <dbl>
##  1 1984-01-01    114.     1   NA    NA   
##  2 1984-02-01    111.     2   NA    NA   
##  3 1984-03-01    116.     3   NA    NA   
##  4 1984-04-01    112.     4   NA    NA   
##  5 1984-05-01    121.     5   NA    NA   
##  6 1984-06-01    121.     6   NA    NA   
##  7 1984-07-01    121.     7  126.   -4.58
##  8 1984-08-01    127.     8  126.    1.18
##  9 1984-09-01    129.     9  127.    1.67
## 10 1984-10-01    133.    10  128.    5.80
## # … with 134 more rows
```
…
